<svg xmlns="http://www.w3.org/2000/svg" width="370" height="302" viewBox="0 0 370 302">
  <g id="Group_213" data-name="Group 213" transform="translate(-1225 -389)">
    <g id="Rectangle_1526" data-name="Rectangle 1526" transform="translate(1315 455)" fill="#fff" stroke="#707070" stroke-width="1">
      <rect width="192" height="36" rx="18" stroke="none"/>
      <rect x="0.5" y="0.5" width="191" height="35" rx="17.5" fill="none"/>
    </g>
    <text id="Wysłanie_dokumentu" data-name="Wysłanie dokumentu" transform="translate(1355 477)" fill="#4d4f5c" font-size="11" font-family="SegoeUI-Bold, Segoe UI" font-weight="700"><tspan x="0" y="0">Wysłanie dokumentu</tspan></text>
    <g id="Rectangle_1526-2" data-name="Rectangle 1526" transform="translate(1315 389)" fill="#fff" stroke="#707070" stroke-width="1">
      <rect width="192" height="36" rx="18" stroke="none"/>
      <rect x="0.5" y="0.5" width="191" height="35" rx="17.5" fill="none"/>
    </g>
    <text id="Start_procesu" data-name="Start procesu" transform="translate(1411 411)" fill="#4d4f5c" font-size="11" font-family="SegoeUI-Bold, Segoe UI" font-weight="700"><tspan x="-34.354" y="0">Start procesu</tspan></text>
    <g id="Rectangle_1528" data-name="Rectangle 1528" transform="translate(1315 589)" fill="#fff" stroke="#707070" stroke-width="1">
      <rect width="192" height="36" rx="18" stroke="none"/>
      <rect x="0.5" y="0.5" width="191" height="35" rx="17.5" fill="none"/>
    </g>
    <text id="Odesłanie_podpisanego" data-name="Odesłanie podpisanego" transform="translate(1411 611)" fill="#4d4f5c" font-size="11" font-family="SegoeUI-Bold, Segoe UI" font-weight="700"><tspan x="-60.642" y="0">Odesłanie podpisanego</tspan></text>
    <g id="Rectangle_1528-2" data-name="Rectangle 1528" transform="translate(1315 655)" fill="#fff" stroke="#707070" stroke-width="1">
      <rect width="192" height="36" rx="18" stroke="none"/>
      <rect x="0.5" y="0.5" width="191" height="35" rx="17.5" fill="none"/>
    </g>
    <text id="Koniec_procesu" data-name="Koniec procesu" transform="translate(1411 677)" fill="#4d4f5c" font-size="11" font-family="SegoeUI-Bold, Segoe UI" font-weight="700"><tspan x="-39.204" y="0">Koniec procesu</tspan></text>
    <g id="Rectangle_1527" data-name="Rectangle 1527" transform="translate(1352 521)" fill="#fff" stroke="#707070" stroke-width="1">
      <rect width="116" height="36" rx="18" stroke="none"/>
      <rect x="0.5" y="0.5" width="115" height="35" rx="17.5" fill="none"/>
    </g>
    <g id="Rectangle_1533" data-name="Rectangle 1533" transform="translate(1225 521)" fill="#fff" stroke="#707070" stroke-width="1">
      <rect width="116" height="36" rx="18" stroke="none"/>
      <rect x="0.5" y="0.5" width="115" height="35" rx="17.5" fill="none"/>
    </g>
    <g id="Rectangle_1534" data-name="Rectangle 1534" transform="translate(1479 521)" fill="#fff" stroke="#707070" stroke-width="1">
      <rect width="116" height="36" rx="18" stroke="none"/>
      <rect x="0.5" y="0.5" width="115" height="35" rx="17.5" fill="none"/>
    </g>
    <text id="Podpis_eDO_App" data-name="Podpis eDO App" transform="translate(1410 543)" fill="#4d4f5c" font-size="11" font-family="SegoeUI-Bold, Segoe UI" font-weight="700"><tspan x="-42.3" y="0">Podpis eDO App</tspan></text>
    <text id="Podpis_ePUAP" data-name="Podpis ePUAP" transform="translate(1283 543)" fill="#4d4f5c" font-size="11" font-family="SegoeUI-Bold, Segoe UI" font-weight="700"><tspan x="-36.349" y="0">Podpis ePUAP</tspan></text>
    <text id="Podpis_EasySign" data-name="Podpis EasySign" transform="translate(1537 543)" fill="#4d4f5c" font-size="11" font-family="SegoeUI-Bold, Segoe UI" font-weight="700"><tspan x="-41.537" y="0">Podpis EasySign</tspan></text>
    <path id="Icon_awesome-long-arrow-alt-down" data-name="Icon awesome-long-arrow-alt-down" d="M9.436,19.354V2.9a.654.654,0,0,0-.654-.654H5.731a.654.654,0,0,0-.654.654v16.45H2.568a1.308,1.308,0,0,0-.925,2.232l4.689,4.689a1.308,1.308,0,0,0,1.849,0l4.689-4.689a1.308,1.308,0,0,0-.925-2.232H9.436Z" transform="translate(1403.803 425.671)" fill="#305cc1"/>
    <path id="Icon_awesome-long-arrow-alt-down-2" data-name="Icon awesome-long-arrow-alt-down" d="M9.436,19.354V2.9a.654.654,0,0,0-.654-.654H5.731a.654.654,0,0,0-.654.654v16.45H2.568a1.308,1.308,0,0,0-.925,2.232l4.689,4.689a1.308,1.308,0,0,0,1.849,0l4.689-4.689a1.308,1.308,0,0,0-.925-2.232H9.436Z" transform="translate(1403.803 557.671)" fill="#305cc1"/>
    <path id="Icon_awesome-long-arrow-alt-down-3" data-name="Icon awesome-long-arrow-alt-down" d="M9.436,19.354V2.9a.654.654,0,0,0-.654-.654H5.731a.654.654,0,0,0-.654.654v16.45H2.568a1.308,1.308,0,0,0-.925,2.232l4.689,4.689a1.308,1.308,0,0,0,1.849,0l4.689-4.689a1.308,1.308,0,0,0-.925-2.232H9.436Z" transform="translate(1403.803 491.671)" fill="#305cc1"/>
    <path id="Icon_awesome-long-arrow-alt-down-4" data-name="Icon awesome-long-arrow-alt-down" d="M9.436,19.354V2.9a.654.654,0,0,0-.654-.654H5.731a.654.654,0,0,0-.654.654v16.45H2.568a1.308,1.308,0,0,0-.925,2.232l4.689,4.689a1.308,1.308,0,0,0,1.849,0l4.689-4.689a1.308,1.308,0,0,0-.925-2.232H9.436Z" transform="translate(1331.517 490.325) rotate(39)" fill="#305cc1"/>
    <path id="Icon_awesome-long-arrow-alt-down-5" data-name="Icon awesome-long-arrow-alt-down" d="M9.436,19.354V2.9a.654.654,0,0,0-.654-.654H5.731a.654.654,0,0,0-.654.654v16.45H2.568a1.308,1.308,0,0,0-.925,2.232l4.689,4.689a1.308,1.308,0,0,0,1.849,0l4.689-4.689a1.308,1.308,0,0,0-.925-2.232H9.436Z" transform="translate(1312.708 568.036) rotate(-45)" fill="#305cc1"/>
    <path id="Icon_awesome-long-arrow-alt-down-6" data-name="Icon awesome-long-arrow-alt-down" d="M9.436,19.354V2.9a.654.654,0,0,0-.654-.654H5.731a.654.654,0,0,0-.654.654v16.45H2.568a1.308,1.308,0,0,0-.925,2.232l4.689,4.689a1.308,1.308,0,0,0,1.849,0l4.689-4.689a1.308,1.308,0,0,0-.925-2.232H9.436Z" transform="translate(1476.708 501.035) rotate(-45)" fill="#305cc1"/>
    <path id="Icon_awesome-long-arrow-alt-down-7" data-name="Icon awesome-long-arrow-alt-down" d="M9.436,19.354V2.9a.654.654,0,0,0-.654-.654H5.731a.654.654,0,0,0-.654.654v16.45H2.568a1.308,1.308,0,0,0-.925,2.232l4.689,4.689a1.308,1.308,0,0,0,1.849,0l4.689-4.689a1.308,1.308,0,0,0-.925-2.232H9.436Z" transform="translate(1497.149 557.772) rotate(45)" fill="#305cc1"/>
    <path id="Icon_awesome-long-arrow-alt-down-8" data-name="Icon awesome-long-arrow-alt-down" d="M9.436,19.354V2.9a.654.654,0,0,0-.654-.654H5.731a.654.654,0,0,0-.654.654v16.45H2.568a1.308,1.308,0,0,0-.925,2.232l4.689,4.689a1.308,1.308,0,0,0,1.849,0l4.689-4.689a1.308,1.308,0,0,0-.925-2.232H9.436Z" transform="translate(1403.803 625.671)" fill="#305cc1"/>
  </g>
</svg>
